R Data Training: Part 1
…
In the read_excel function above, we needed to tell R both the filepath of the excel file and the sheet. These two elements are referred to as function arguments. In R (as in Excel), function arguments have a default order.

read_excel() takes a number of different arguments, of which weve used two here: path, and sheet:

The first parameter in the example above "data/GDPOutputData.xlsx", is passed to the argument path

The second parameter, "Data", is passed to the argument sheet

Tip: Sometimes you cant remember which arguments are need for the function to work, or which order they go in. To check, either go to help pages for the function by typing ?functionname or by pressing tab inside the function parentheses.

So we can call the read_excel function in a number of ways

read_excel(path = "data/GDPOutputData.xlsx", sheet = "Data")

## # A tibble: 126 x 182
##    Date                 TOTAL     A  `01`  `02`  `03` `B-F` `B-E`     B  `05`
##    <dttm>               <dbl> <dbl> <dbl> <dbl> <dbl> <dbl> <dbl> <dbl> <dbl>
##  1 1990-03-31 00:00:00 277412  2702  2433   114   282 86890 62273  8330  1465
##  2 1990-06-30 00:00:00 278540  2730  2455   119   284 87757 63200  8742  1538
##  3 1990-09-30 00:00:00 276185  2758  2482   117   287 86255 62140  7912  1392
##  4 1990-12-31 00:00:00 275720  2773  2495   119   287 85464 61544  7976  1403
##  5 1991-03-31 00:00:00 274540  2861  2575   124   296 83959 60815  8340  1467
##  6 1991-06-30 00:00:00 274579  2897  2608   122   303 83517 60153  8287  1458
##  7 1991-09-30 00:00:00 274574  2879  2590   122   300 82704 59623  8839  1555
##  8 1991-12-31 00:00:00 274987  2876  2588   122   301 83203 60219  8989  1581
##  9 1992-03-31 00:00:00 274592  2998  2698   128   314 82656 60219  8833  1554
## 10 1992-06-30 00:00:00 274741  2970  2674   126   307 82306 59954  8490  1494
## # ... with 116 more rows, and 172 more variables: 06 <dbl>, 07 <lgl>, 08 <dbl>,
## #   09 <dbl>, C <dbl>, CA <dbl>, 10 <dbl>, 10.1 <dbl>, 10.2-3 <dbl>,
## #   10.4 <dbl>, 10.5 <dbl>, 10.6 <dbl>, 10.7 <dbl>, 10.8 <dbl>, 10.9 <dbl>,
## #   11 <dbl>, 11.01-6 <dbl>, 11.07 <dbl>, 12 <dbl>, CB <dbl>, 13 <dbl>,
## #   14 <dbl>, 15 <dbl>, CC <dbl>, 16 <dbl>, 17 <dbl>, 18 <dbl>, CD <dbl>,
## #   19 <dbl>, CE <dbl>, 20 <dbl>, 20A <dbl>, 20B <dbl>, 20C <dbl>, 20.3 <dbl>,
## #   20.4 <dbl>, 20.5 <dbl>, CF <dbl>, 21 <dbl>, CG <dbl>, 22 <dbl>, 23 <dbl>,
## #   23OTHER <dbl>, 23.5-6 <dbl>, CH <dbl>, 24 <dbl>, 24.1-3 <dbl>,
## #   24.4-5 <dbl>, 25 <dbl>, 25OTHER <dbl>, 25.4 <dbl>, CI <dbl>, 26 <dbl>,
## #   CJ <dbl>, 27 <dbl>, CK <dbl>, 28 <dbl>, CL <dbl>, 29 <dbl>, 30 <dbl>,
## #   30.1 <dbl>, 30.3 <dbl>, 30OTHER <dbl>, CM <dbl>, 31-32 <dbl>, 31 <dbl>,
## #   32 <dbl>, 33 <dbl>, 33.15 <dbl>, 33.16 <dbl>, 33OTHER <dbl>, D <dbl>,
## #   35 <dbl>, 35.1 <dbl>, 35.2-3 <dbl>, E <dbl>, 36 <dbl>, 37-39 <dbl>,
## #   37 <dbl>, 38 <dbl>, 39 <dbl>, F <dbl>, 41 <dbl>, 42 <dbl>, 43 <dbl>,
## #   G-U <dbl>, G-I <dbl>, G <dbl>, 45 <dbl>, 46 <dbl>, 47 <dbl>, H <dbl>,
## #   49 <dbl>, 49.1-2 <dbl>, 49.3-5 <dbl>, 50 <dbl>, 51 <dbl>, 52 <dbl>,
## #   53 <dbl>, I <dbl>, ...

read_excel("data/GDPOutputData.xlsx", "Data")

## # A tibble: 126 x 182
##    Date                 TOTAL     A  `01`  `02`  `03` `B-F` `B-E`     B  `05`
##    <dttm>               <dbl> <dbl> <dbl> <dbl> <dbl> <dbl> <dbl> <dbl> <dbl>
##  1 1990-03-31 00:00:00 277412  2702  2433   114   282 86890 62273  8330  1465
##  2 1990-06-30 00:00:00 278540  2730  2455   119   284 87757 63200  8742  1538
##  3 1990-09-30 00:00:00 276185  2758  2482   117   287 86255 62140  7912  1392
##  4 1990-12-31 00:00:00 275720  2773  2495   119   287 85464 61544  7976  1403
##  5 1991-03-31 00:00:00 274540  2861  2575   124   296 83959 60815  8340  1467
##  6 1991-06-30 00:00:00 274579  2897  2608   122   303 83517 60153  8287  1458
##  7 1991-09-30 00:00:00 274574  2879  2590   122   300 82704 59623  8839  1555
##  8 1991-12-31 00:00:00 274987  2876  2588   122   301 83203 60219  8989  1581
##  9 1992-03-31 00:00:00 274592  2998  2698   128   314 82656 60219  8833  1554
## 10 1992-06-30 00:00:00 274741  2970  2674   126   307 82306 59954  8490  1494
## # ... with 116 more rows, and 172 more variables: 06 <dbl>, 07 <lgl>, 08 <dbl>,
## #   09 <dbl>, C <dbl>, CA <dbl>, 10 <dbl>, 10.1 <dbl>, 10.2-3 <dbl>,
## #   10.4 <dbl>, 10.5 <dbl>, 10.6 <dbl>, 10.7 <dbl>, 10.8 <dbl>, 10.9 <dbl>,
## #   11 <dbl>, 11.01-6 <dbl>, 11.07 <dbl>, 12 <dbl>, CB <dbl>, 13 <dbl>,
## #   14 <dbl>, 15 <dbl>, CC <dbl>, 16 <dbl>, 17 <dbl>, 18 <dbl>, CD <dbl>,
## #   19 <dbl>, CE <dbl>, 20 <dbl>, 20A <dbl>, 20B <dbl>, 20C <dbl>, 20.3 <dbl>,
## #   20.4 <dbl>, 20.5 <dbl>, CF <dbl>, 21 <dbl>, CG <dbl>, 22 <dbl>, 23 <dbl>,
## #   23OTHER <dbl>, 23.5-6 <dbl>, CH <dbl>, 24 <dbl>, 24.1-3 <dbl>,
## #   24.4-5 <dbl>, 25 <dbl>, 25OTHER <dbl>, 25.4 <dbl>, CI <dbl>, 26 <dbl>,
## #   CJ <dbl>, 27 <dbl>, CK <dbl>, 28 <dbl>, CL <dbl>, 29 <dbl>, 30 <dbl>,
## #   30.1 <dbl>, 30.3 <dbl>, 30OTHER <dbl>, CM <dbl>, 31-32 <dbl>, 31 <dbl>,
## #   32 <dbl>, 33 <dbl>, 33.15 <dbl>, 33.16 <dbl>, 33OTHER <dbl>, D <dbl>,
## #   35 <dbl>, 35.1 <dbl>, 35.2-3 <dbl>, E <dbl>, 36 <dbl>, 37-39 <dbl>,
## #   37 <dbl>, 38 <dbl>, 39 <dbl>, F <dbl>, 41 <dbl>, 42 <dbl>, 43 <dbl>,
## #   G-U <dbl>, G-I <dbl>, G <dbl>, 45 <dbl>, 46 <dbl>, 47 <dbl>, H <dbl>,
## #   49 <dbl>, 49.1-2 <dbl>, 49.3-5 <dbl>, 50 <dbl>, 51 <dbl>, 52 <dbl>,
## #   53 <dbl>, I <dbl>, ...

or even:

read_excel(sheet = "Data", path = "data/GDPOutputData.xlsx")

## # A tibble: 126 x 182
##    Date                 TOTAL     A  `01`  `02`  `03` `B-F` `B-E`     B  `05`
##    <dttm>               <dbl> <dbl> <dbl> <dbl> <dbl> <dbl> <dbl> <dbl> <dbl>
##  1 1990-03-31 00:00:00 277412  2702  2433   114   282 86890 62273  8330  1465
##  2 1990-06-30 00:00:00 278540  2730  2455   119   284 87757 63200  8742  1538
##  3 1990-09-30 00:00:00 276185  2758  2482   117   287 86255 62140  7912  1392
##  4 1990-12-31 00:00:00 275720  2773  2495   119   287 85464 61544  7976  1403
##  5 1991-03-31 00:00:00 274540  2861  2575   124   296 83959 60815  8340  1467
##  6 1991-06-30 00:00:00 274579  2897  2608   122   303 83517 60153  8287  1458
##  7 1991-09-30 00:00:00 274574  2879  2590   122   300 82704 59623  8839  1555
##  8 1991-12-31 00:00:00 274987  2876  2588   122   301 83203 60219  8989  1581
##  9 1992-03-31 00:00:00 274592  2998  2698   128   314 82656 60219  8833  1554
## 10 1992-06-30 00:00:00 274741  2970  2674   126   307 82306 59954  8490  1494
## # ... with 116 more rows, and 172 more variables: 06 <dbl>, 07 <lgl>, 08 <dbl>,
## #   09 <dbl>, C <dbl>, CA <dbl>, 10 <dbl>, 10.1 <dbl>, 10.2-3 <dbl>,
## #   10.4 <dbl>, 10.5 <dbl>, 10.6 <dbl>, 10.7 <dbl>, 10.8 <dbl>, 10.9 <dbl>,
## #   11 <dbl>, 11.01-6 <dbl>, 11.07 <dbl>, 12 <dbl>, CB <dbl>, 13 <dbl>,
## #   14 <dbl>, 15 <dbl>, CC <dbl>, 16 <dbl>, 17 <dbl>, 18 <dbl>, CD <dbl>,
## #   19 <dbl>, CE <dbl>, 20 <dbl>, 20A <dbl>, 20B <dbl>, 20C <dbl>, 20.3 <dbl>,
## #   20.4 <dbl>, 20.5 <dbl>, CF <dbl>, 21 <dbl>, CG <dbl>, 22 <dbl>, 23 <dbl>,
## #   23OTHER <dbl>, 23.5-6 <dbl>, CH <dbl>, 24 <dbl>, 24.1-3 <dbl>,
## #   24.4-5 <dbl>, 25 <dbl>, 25OTHER <dbl>, 25.4 <dbl>, CI <dbl>, 26 <dbl>,
…
Note that some functions, including read_excel have optional arguments. These are not required for the function to work, but can change how the function works if you use them. You typically call optional arguments by referencing their name explicitly.

For instance, we can also tell R to read in a specific range of the cells in the excel file, using the argument range:

read_excel("../data/GDPOutputData.xlsx", "Data", range = "A1:D100")

## # A tibble: 99 x 4
##    Date                 TOTAL     A  `01`
##    <dttm>               <dbl> <dbl> <dbl>
##  1 1990-03-31 00:00:00 277412  2702  2433
##  2 1990-06-30 00:00:00 278540  2730  2455
##  3 1990-09-30 00:00:00 276185  2758  2482
##  4 1990-12-31 00:00:00 275720  2773  2495
##  5 1991-03-31 00:00:00 274540  2861  2575
##  6 1991-06-30 00:00:00 274579  2897  2608
##  7 1991-09-30 00:00:00 274574  2879  2590
##  8 1991-12-31 00:00:00 274987  2876  2588
##  9 1992-03-31 00:00:00 274592  2998  2698
## 10 1992-06-30 00:00:00 274741  2970  2674
## # ... with 89 more rows
…
N.B. the power of tab auto complete doesnt just exist for functions and in the console, but for all objects and also when writing commands in the script editor too.

Tip: If we are not sure how a function works we can press F1 (or Fn + F1, on laptops) when the cursor is in the function name, or type ?functionname into the console. This will bring up the help menu. For instance, to get help on the read_excel function, type ?read_excel

Viewing Data

Now lets go back to our data that we have loaded into R.

R has a native table object called a data frame or (data.frame). We have stored out imported data in two different tables: sectors and data.

We can print the data table by typing data in the command line:

data

## # A tibble: 126 x 182
##    Date                 TOTAL     A  `01`  `02`  `03` `B-F` `B-E`     B  `05`
##    <dttm>               <dbl> <dbl> <dbl> <dbl> <dbl> <dbl> <dbl> <dbl> <dbl>
##  1 1990-03-31 00:00:00 277412  2702  2433   114   282 86890 62273  8330  1465
##  2 1990-06-30 00:00:00 278540  2730  2455   119   284 87757 63200  8742  1538
##  3 1990-09-30 00:00:00 276185  2758  2482   117   287 86255 62140  7912  1392
##  4 1990-12-31 00:00:00 275720  2773  2495   119   287 85464 61544  7976  1403
##  5 1991-03-31 00:00:00 274540  2861  2575   124   296 83959 60815  8340  1467
##  6 1991-06-30 00:00:00 274579  2897  2608   122   303 83517 60153  8287  1458
##  7 1991-09-30 00:00:00 274574  2879  2590   122   300 82704 59623  8839  1555
##  8 1991-12-31 00:00:00 274987  2876  2588   122   301 83203 60219  8989  1581
##  9 1992-03-31 00:00:00 274592  2998  2698   128   314 82656 60219  8833  1554
## 10 1992-06-30 00:00:00 274741  2970  2674   126   307 82306 59954  8490  1494
## # ... with 116 more rows, and 172 more variables: 06 <dbl>, 07 <lgl>, 08 <dbl>,
## #   09 <dbl>, C <dbl>, CA <dbl>, 10 <dbl>, 10.1 <dbl>, 10.2-3 <dbl>,
## #   10.4 <dbl>, 10.5 <dbl>, 10.6 <dbl>, 10.7 <dbl>, 10.8 <dbl>, 10.9 <dbl>,
## #   11 <dbl>, 11.01-6 <dbl>, 11.07 <dbl>, 12 <dbl>, CB <dbl>, 13 <dbl>,
## #   14 <dbl>, 15 <dbl>, CC <dbl>, 16 <dbl>, 17 <dbl>, 18 <dbl>, CD <dbl>,
## #   19 <dbl>, CE <dbl>, 20 <dbl>, 20A <dbl>, 20B <dbl>, 20C <dbl>, 20.3 <dbl>,
## #   20.4 <dbl>, 20.5 <dbl>, CF <dbl>, 21 <dbl>, CG <dbl>, 22 <dbl>, 23 <dbl>,
## #   23OTHER <dbl>, 23.5-6 <dbl>, CH <dbl>, 24 <dbl>, 24.1-3 <dbl>,
## #   24.4-5 <dbl>, 25 <dbl>, 25OTHER <dbl>, 25.4 <dbl>, CI <dbl>, 26 <dbl>,
…
